{
  "broadcasting": true,
  "broadcasting_on": {
    "youtube_broadcasting_code": "https://youtu.be/ja6_jtWkVYc",
    "title": "Матч 'Динамо-Брест' – БАТЭ",
    "text": "<p>Текст</p>"
  },
  "broadcasting_off": {
    "title": "Алексей Легчилин – лучший в матче против Крумкачоу",
    "img": "http://dynamo-brest.by/media/k2/items/cache/c3562f2e9521020de502f370ac3fbe48_L.jpg",
    "text": "<p>Текст</p>"
  }
}
